<svg width="16" height="16" viewBox="0 0 16 16" fill="none" xmlns="http://www.w3.org/2000/svg">
<path d="M11 2V12C11 13.657 9.65699 15 8 15C6.34301 15 5 13.657 5 12V3C5 1.89549 5.89549 1 7 1C8.10451 1 9 1.89549 9 3V12C9 12.5525 8.552 13 8 13C7.44749 13 7 12.5525 7 12V4H6V12C6 13.1045 6.89549 14 8 14C9.10451 14 10 13.1045 10 12V3C10 1.34301 8.65699 0 7 0C5.34301 0 4 1.34301 4 3V12.5C4.24651 14.4725 5.96051 16 8 16C10.0395 16 11.7535 14.4725 12 12.5V2H11Z" fill="#777777"/>
</svg>
