<svg width="16" height="16" viewBox="0 0 16 16" fill="none" xmlns="http://www.w3.org/2000/svg">
<path d="M11.5 7.5H6.20701L8.26748 5.4395C8.46301 5.244 8.46301 4.9275 8.26748 4.7325C8.07197 4.53699 7.7555 4.53699 7.5605 4.7325L4.732 7.56099C4.6125 7.6805 4.57501 7.84499 4.60248 8C4.57498 8.15501 4.6125 8.3195 4.7325 8.4395L7.56099 11.268C7.7565 11.4635 8.07299 11.4635 8.268 11.268C8.4635 11.0725 8.4635 10.756 8.268 10.561L6.20701 8.5H11.5C11.776 8.5 12 8.276 12 8C12 7.724 11.776 7.5 11.5 7.5ZM8 0C3.58149 0 0 3.58149 0 8C0 12.418 3.58149 16 8 16C12.4185 16 16 12.418 16 8C16 3.58149 12.4185 0 8 0ZM8 15C4.13399 15 1 11.866 1 8C1 4.13399 4.13399 1 8 1C11.866 1 15 4.13399 15 8C15 11.866 11.866 15 8 15Z" fill="#777777"/>
</svg>
