<svg width="16" height="16" viewBox="0 0 16 16" fill="none" xmlns="http://www.w3.org/2000/svg">
<path d="M2 6C0.895503 6 0 6.8955 0 8C0 9.1045 0.895503 10 2 10C3.1045 10 4 9.1045 4 8C4 6.8955 3.1045 6 2 6ZM2 9C1.4475 9 1 8.5525 1 8C1 7.448 1.4475 7 2 7C2.5525 7 3 7.4475 3 8C3 8.5525 2.5525 9 2 9ZM2 11C0.895503 11 0 11.8955 0 13C0 14.1045 0.895503 15 2 15C3.1045 15 4 14.1045 4 13C4 11.8955 3.1045 11 2 11ZM2 14C1.4475 14 1 13.552 1 13C1 12.448 1.4475 12 2 12C2.5525 12 3 12.4475 3 13C3 13.5525 2.5525 14 2 14ZM14 5C15.1045 5 16 4.1045 16 3C16 1.8955 15.1045 1 14 1C12.8955 1 12 1.8955 12 3C12 4.1045 12.8955 5 14 5ZM14 2C14.5525 2 15 2.448 15 3C15 3.5525 14.5525 4 14 4C13.4475 4 13 3.5525 13 3C13 2.448 13.4475 2 14 2ZM14 11C12.8955 11 12 11.8955 12 13C12 14.1045 12.8955 15 14 15C15.1045 15 16 14.1045 16 13C16 11.8955 15.1045 11 14 11ZM14 14C13.4475 14 13 13.552 13 13C13 12.448 13.4475 12 14 12C14.5525 12 15 12.4475 15 13C15 13.5525 14.5525 14 14 14ZM2 1C0.895503 1 0 1.8955 0 3C0 4.1045 0.895503 5 2 5C3.1045 5 4 4.1045 4 3C4 1.8955 3.1045 1 2 1ZM2 4C1.4475 4 1 3.5525 1 3C1 2.448 1.4475 2 2 2C2.5525 2 3 2.448 3 3C3 3.5525 2.5525 4 2 4ZM14 6C12.8955 6 12 6.8955 12 8C12 9.1045 12.8955 10 14 10C15.1045 10 16 9.1045 16 8C16 6.8955 15.1045 6 14 6ZM14 9C13.4475 9 13 8.5525 13 8C13 7.448 13.4475 7 14 7C14.5525 7 15 7.4475 15 8C15 8.5525 14.5525 9 14 9ZM8 1C6.8955 1 6 1.8955 6 3C6 4.1045 6.8955 5 8 5C9.1045 5 10 4.1045 10 3C10 1.8955 9.1045 1 8 1ZM8 4C7.4475 4 7 3.5525 7 3C7 2.448 7.4475 2 8 2C8.5525 2 9 2.448 9 3C9 3.5525 8.5525 4 8 4ZM8 11C6.8955 11 6 11.8955 6 13C6 14.1045 6.8955 15 8 15C9.1045 15 10 14.1045 10 13C10 11.8955 9.1045 11 8 11ZM8 14C7.4475 14 7 13.552 7 13C7 12.448 7.4475 12 8 12C8.5525 12 9 12.4475 9 13C9 13.5525 8.5525 14 8 14ZM8 6C6.8955 6 6 6.8955 6 8C6 9.1045 6.8955 10 8 10C9.1045 10 10 9.1045 10 8C10 6.8955 9.1045 6 8 6ZM8 9C7.4475 9 7 8.5525 7 8C7 7.448 7.4475 7 8 7C8.5525 7 9 7.4475 9 8C9 8.5525 8.5525 9 8 9Z" fill="#777777"/>
</svg>
