<svg width="16" height="16" viewBox="0 0 16 16" fill="none" xmlns="http://www.w3.org/2000/svg">
<path d="M11.0135 4.53399C10.7745 4.396 10.4685 4.47799 10.3305 4.71699L7.13299 10.2555L5.344 8.60549C5.15501 8.404 4.83901 8.39352 4.63749 8.58248C4.436 8.77148 4.42549 9.08748 4.61451 9.28949L6.9005 11.398C7.08949 11.5995 7.40549 11.61 7.60698 11.421C7.66797 11.364 11.197 5.21749 11.197 5.21749C11.3345 4.97801 11.2525 4.672 11.0135 4.53399ZM8 0C3.58149 0 0 3.58149 0 8C0 12.4185 3.58149 16 8 16C12.4185 16 16 12.4185 16 8C16 3.58149 12.4185 0 8 0ZM8 15C4.13399 15 1 11.866 1 8C1 4.13399 4.13399 1 8 1C11.866 1 15 4.13399 15 8C15 11.866 11.866 15 8 15Z" fill="#777777"/>
</svg>
