<svg width="16" height="16" viewBox="0 0 16 16" fill="none" xmlns="http://www.w3.org/2000/svg">
<g clip-path="url(#clip0)">
<path d="M15.5185 1.00301C15.6373 0.897875 15.7173 0.747595 15.7173 0.572753C15.7173 0.326464 15.5653 0.121384 15.3551 0.0407843C15.2728 0.00593178 15.1848 -0.00435754 15.0968 0.00136715H0.89179C0.732961 -0.00889695 0.571812 0.0413644 0.450711 0.163071C0.226716 0.38762 0.226716 0.75216 0.450711 0.976709L7.71745 9.71477V14.8571H5.43193C5.11654 14.8571 4.86057 15.1131 4.86057 15.4285C4.86057 15.7439 5.11654 15.9999 5.43193 15.9999H11.1457C11.4611 15.9999 11.7171 15.7439 11.7171 15.4285C11.7171 15.1131 11.4611 14.8571 11.1457 14.8571H8.86019V9.71479L15.5185 1.00301ZM8.28883 8.57202L2.05627 1.14414H13.9929L8.28883 8.57202Z" fill="#777777"/>
</g>
<defs>
<clipPath id="clip0">
<rect width="16" height="16" fill="white"/>
</clipPath>
</defs>
</svg>
