<svg width="16" height="16" viewBox="0 0 16 16" fill="none" xmlns="http://www.w3.org/2000/svg">
<path d="M15.0418 0.00683594H8.33754C7.80874 0.00683594 7.71178 0.238255 7.20748 0.765536L0.607613 7.3454C-0.202538 8.15257 -0.202538 9.46203 0.607613 10.2697L5.74106 15.3877C6.55123 16.1954 7.86422 16.1954 8.67437 15.3877L15.2748 8.80782C15.6996 8.38399 16 8.17356 16 7.64579V0.96195C15.9995 0.434172 15.5706 0.00683594 15.0418 0.00683594ZM7.94069 14.6565C7.53586 15.0603 6.87912 15.0603 6.4738 14.6565L1.34082 9.53855C0.935997 9.13472 0.935997 8.47996 1.34082 8.07613L2.08206 7.33743L8.6664 13.9328L7.94069 14.6565ZM15.0418 7.16846C15.0418 7.43235 14.7994 7.81922 14.541 8.0766L9.40761 13.1946L2.81527 6.6062L7.94069 1.49673C8.17611 1.26184 8.55144 0.96195 8.81586 0.96195H14.5625C14.8269 0.96195 15.0414 1.17588 15.0414 1.43927V7.16846H15.0418ZM9.77447 3.32451C8.9643 4.1322 8.9643 5.44116 9.77447 6.24883C10.5846 7.05652 11.8976 7.05652 12.7078 6.24883C13.518 5.44113 13.518 4.13217 12.7078 3.32451C11.8976 2.51684 10.5842 2.51684 9.77447 3.32451ZM11.9741 5.51763C11.5693 5.92146 10.9125 5.92146 10.5072 5.51763C10.1024 5.1138 10.1024 4.45904 10.5072 4.05521C10.912 3.65137 11.5688 3.65137 11.9741 4.05521C12.3794 4.45907 12.3794 5.1138 11.9741 5.51763Z" fill="#777777"/>
</svg>
