<svg width="16" height="16" viewBox="0 0 16 16" fill="none" xmlns="http://www.w3.org/2000/svg">
<path d="M0.571425 1.71438H15.4286C15.744 1.71438 16 1.45838 16 1.14296C16 0.827533 15.744 0.571533 15.4286 0.571533H0.571425C0.256 0.571533 0 0.827533 0 1.14296C0 1.45838 0.256 1.71438 0.571425 1.71438ZM0.571425 6.28583H10.8572C11.1725 6.28583 11.4285 6.02983 11.4285 5.71441C11.4285 5.39898 11.1725 5.14298 10.8572 5.14298H0.571425C0.256 5.14296 0 5.39896 0 5.71438C0 6.02983 0.256 6.28583 0.571425 6.28583ZM9.14285 14.2858H0.571425C0.256 14.2858 0 14.5418 0 14.8573C0 15.1727 0.256 15.4287 0.571425 15.4287H9.14285C9.45827 15.4287 9.71428 15.1727 9.71428 14.8573C9.71428 14.5418 9.45827 14.2858 9.14285 14.2858ZM15.4286 9.71438H0.571425C0.256 9.71438 0 9.97038 0 10.2858C0 10.6013 0.256 10.8573 0.571425 10.8573H15.4286C15.744 10.8573 16 10.6013 16 10.2858C16 9.97041 15.744 9.71438 15.4286 9.71438Z" fill="#777777"/>
</svg>
