<svg width="16" height="16" viewBox="0 0 16 16" fill="none" xmlns="http://www.w3.org/2000/svg">
<path d="M13.5 9.5H12.5C12.045 11.5035 10.141 13 8 13C5.85901 13 3.95499 11.5035 3.5 9.5H2.5C2.94149 11.8995 5.03149 13.755 7.5 13.9775V15H7C6.724 15 6.5 15.224 6.5 15.5C6.5 15.776 6.724 16 7 16H9C9.276 16 9.5 15.776 9.5 15.5C9.5 15.224 9.276 15 9 15H8.5V13.9775C10.9685 13.755 13.0585 11.8995 13.5 9.5ZM8 12C9.93301 12 11.5 10.433 11.5 8.5V3.5C11.5 1.56699 9.93301 0 8 0C6.06699 0 4.5 1.56699 4.5 3.5V8.5C4.5 10.433 6.06699 12 8 12ZM5.5 3.5C5.5 2.11949 6.61949 1 8 1C9.38051 1 10.5 2.11949 10.5 3.5V8.5C10.5 9.8805 9.38051 11 8 11C6.61949 11 5.5 9.8805 5.5 8.5V3.5Z" fill="#777777"/>
</svg>
