<svg width="16" height="16" viewBox="0 0 16 16" fill="none" xmlns="http://www.w3.org/2000/svg">
<path d="M8.5 9H2.5C2.224 9 2 9.224 2 9.5C2 9.776 2.224 10 2.5 10H8.5C8.776 10 9 9.776 9 9.5C9 9.224 8.776 9 8.5 9ZM8.5 11H2.5C2.224 11 2 11.224 2 11.5C2 11.776 2.224 12 2.5 12H8.5C8.776 12 9 11.776 9 11.5C9 11.224 8.776 11 8.5 11ZM14 2H2C0.895503 2 0 2.8955 0 4V12C0 13.1045 0.895503 14 2 14H14C15.1045 14 16 13.1045 16 12V4C16 2.8955 15.1045 2 14 2ZM15 12C15 12.552 14.5525 13 14 13H2C1.4475 13 1 12.552 1 12V4C1 3.4475 1.448 3 2 3H14C14.5525 3 15 3.4475 15 4V12ZM13 4H11C10.4475 4 10 4.448 10 5V7C10 7.5525 10.4475 8 11 8H13C13.5525 8 14 7.5525 14 7V5C14 4.4475 13.5525 4 13 4ZM13 6.5C13 6.776 12.776 7 12.5 7H11.5C11.224 7 11 6.776 11 6.5V5.5C11 5.224 11.224 5 11.5 5H12.5C12.776 5 13 5.224 13 5.5V6.5Z" fill="#777777"/>
</svg>
