<svg width="16" height="16" viewBox="0 0 16 16" fill="none" xmlns="http://www.w3.org/2000/svg">
<path d="M13.5 7.99997H12.5C11.9475 7.99997 11.5 8.44747 11.5 8.99997V14.9999C11.5 15.5525 11.9475 15.9999 12.5 15.9999H13.5C14.0525 15.9999 14.5 15.5525 14.5 14.9999V8.99997C14.5 8.44749 14.0525 7.99997 13.5 7.99997ZM13.5 14.5C13.5 14.7759 13.276 14.9999 13 14.9999C12.724 14.9999 12.5 14.7759 12.5 14.5V9.49996C12.5 9.22396 12.724 8.99997 13 8.99997C13.276 8.99997 13.5 9.22396 13.5 9.49996V14.5ZM8.5 0H7.49999C6.94752 0 6.50001 0.4475 6.50001 0.999999V15C6.50001 15.5525 6.94752 16 7.50002 16H8.50002C9.05254 16 9.50002 15.5525 9.50002 15V0.999999C9.5 0.4475 9.05252 0 8.5 0ZM8.5 14.5C8.5 14.7759 8.276 14.9999 8.00001 14.9999C7.72401 14.9999 7.49999 14.7759 7.49999 14.5V1.49999C7.49999 1.22399 7.72399 0.999978 8.00001 0.999978C8.27602 0.999978 8.5 1.22397 8.5 1.49999V14.5ZM3.50001 4.49998H2.5C1.9475 4.49998 1.5 4.94797 1.5 5.49998V14.9999C1.5 15.5525 1.9475 15.9999 2.5 15.9999H3.50001C4.05251 15.9999 4.50001 15.5525 4.50001 14.9999V5.49998C4.50001 4.94748 4.05251 4.49998 3.50001 4.49998ZM3.50001 14.5C3.50001 14.7759 3.27601 14.9999 2.99999 14.9999C2.72398 14.9999 2.5 14.7759 2.5 14.5V5.99997C2.5 5.72398 2.724 5.49996 2.99999 5.49996C3.27599 5.49996 3.50001 5.72396 3.50001 5.99997V14.5Z" fill="#777777"/>
</svg>
