<svg width="16" height="16" viewBox="0 0 16 16" fill="none" xmlns="http://www.w3.org/2000/svg">
<path d="M15.5 13.5H0.5C0.224 13.5 0 13.724 0 14C0 14.276 0.224 14.5 0.5 14.5H15.5C15.776 14.5 16 14.276 16 14C16 13.724 15.776 13.5 15.5 13.5ZM8.5 3.5V2.5H9.5C9.776 2.5 10 2.276 10 2C10 1.724 9.776 1.5 9.5 1.5H6.5C6.224 1.5 6 1.724 6 2C6 2.276 6.224 2.5 6.5 2.5H7.5C7.5 2.5 7.4965 3.54099 7.5 3.5C3.316 3.7595 0 7.25051 0 11.5C0 11.906 0 11.724 0 12C0 12.276 0.224 12.5 0.5 12.5H15.5C15.776 12.5 16 12.276 16 12C16 11.724 16 11.9375 16 11.5C16 7.25051 12.684 3.7595 8.5 3.5ZM1 11.5C1 7.63399 4.13399 4.5 8 4.5C11.866 4.5 15 7.63399 15 11.5H1Z" fill="#777777"/>
</svg>
