<svg width="16" height="16" viewBox="0 0 16 16" fill="none" xmlns="http://www.w3.org/2000/svg">
<path d="M8.00024 0L0.495728 8.82848L1.19973 9.5355L3.00022 7.50001V14C3.00022 15.1045 3.91272 16 5.01273 16H10.9877C12.0877 16 13.0002 15.1045 13.0002 14V7.50001L14.8002 9.5355L15.5042 8.82848L8.00024 0ZM11.9833 14C11.9833 14.5525 11.5373 15 10.9873 15H5.01273C4.46271 15 4.00022 14.552 4.00022 14V6.3125L8.00024 1.465L12.0003 6.297L11.9833 14Z" fill="#777777"/>
</svg>
