<svg width="16" height="16" viewBox="0 0 16 16" fill="none" xmlns="http://www.w3.org/2000/svg">
<g clip-path="url(#clip0)">
<path d="M15.804 11.5169L8.50714 3.52854C8.36777 3.38848 8.18236 3.32914 8.00032 3.33847C7.8176 3.32914 7.63284 3.38848 7.49347 3.52854L0.196059 11.5169C-0.0653529 11.7789 -0.0653529 12.2044 0.196059 12.4665C0.457471 12.7286 0.881627 12.7285 1.14304 12.4665L8.00037 4.95892L14.857 12.4665C15.1184 12.7285 15.5425 12.7285 15.804 12.4665C16.0654 12.2044 16.0654 11.7789 15.804 11.5169Z" fill="#777777"/>
</g>
<defs>
<clipPath id="clip0">
<rect width="16" height="16" fill="white"/>
</clipPath>
</defs>
</svg>
