<svg width="16" height="16" viewBox="0 0 16 16" fill="none" xmlns="http://www.w3.org/2000/svg">
<path d="M7 0C6.76251 0 6.776 0 6.5 0C6.224 0 6 0.224 6 0.5V15.5C6 15.776 6.224 16 6.5 16C6.776 16 7 15.776 7 15.5V9H10C10 3.11 7 0 7 0ZM7 1.5C7 1.5 8.90299 4.8465 9 8H7V1.5Z" fill="#777777"/>
</svg>
